<?xml version="1.0" encoding="utf-8"?>
<!-- Generator: Adobe Illustrator 19.0.0, SVG Export Plug-In . SVG Version: 6.00 Build 0)  -->
<!DOCTYPE svg PUBLIC "-//W3C//DTD SVG 1.1//EN" "http://www.w3.org/Graphics/SVG/1.1/DTD/svg11.dtd">
<svg version="1.1" id="Layer_1" xmlns="http://www.w3.org/2000/svg" xmlns:xlink="http://www.w3.org/1999/xlink" x="0px" y="0px"
	 viewBox="-356 586.3 77.5 52.7" style="enable-background:new -356 586.3 77.5 52.7;" xml:space="preserve">
<style type="text/css">
	.st0{filter:url(#Adobe_OpacityMaskFilter);}
	.st1{fill:#FFFFFF;}
	.st2{mask:url(#SVGID_1_);}
	.st3{fill:#4758A9;}
	.st4{fill:#ED5565;}
</style>
<defs>
	<filter id="Adobe_OpacityMaskFilter" filterUnits="userSpaceOnUse" x="-363.6" y="581.3" width="92.8" height="62.7">
		<feColorMatrix  type="matrix" values="1 0 0 0 0  0 1 0 0 0  0 0 1 0 0  0 0 0 1 0"/>
	</filter>
</defs>
<mask maskUnits="userSpaceOnUse" x="-363.6" y="581.3" width="92.8" height="62.7" id="SVGID_1_">
	<g class="st0">
		<path class="st1" d="M-351.5,584.5h68.5c4.2,0,7.6,3.4,7.6,7.6v41c0,4.2-3.4,7.6-7.6,7.6h-68.5c-4.2,0-7.6-3.4-7.6-7.6v-41
			C-359.1,587.9-355.7,584.5-351.5,584.5z"/>
	</g>
</mask>
<g class="st2">
	<path class="st3" d="M-351.5,584.5h68.5c4.2,0,7.6,3.4,7.6,7.6v41c0,4.2-3.4,7.6-7.6,7.6h-68.5c-4.2,0-7.6-3.4-7.6-7.6v-41
		C-359.1,587.9-355.7,584.5-351.5,584.5z"/>
	<path class="st1" d="M-360.4,644l-3.2-5l89.5-57.7l3.2,5L-360.4,644z"/>
	<path class="st4" d="M-360.9,643.2l-2.2-3.4l89.5-57.7l2.2,3.4L-360.9,643.2z"/>
	<path class="st1" d="M-274.4,643.7l3.2-5l-88.9-57.2l-3.2,5L-274.4,643.7z"/>
	<path class="st4" d="M-273.9,642.9l2.1-3.3l-88.9-57.2l-2.1,3.3L-273.9,642.9z"/>
	<path class="st1" d="M-359.1,619.8v-14.4h83.8v14.4H-359.1z"/>
	<rect x="-324.4" y="584.5" class="st1" width="14.4" height="56.2"/>
	<path class="st4" d="M-359.1,617.4v-9.6h83.8v9.6H-359.1z"/>
	<rect x="-322" y="584.5" class="st4" width="9.6" height="56.2"/>
</g>
</svg>
