<svg xmlns="http://www.w3.org/2000/svg" xmlns:xlink="http://www.w3.org/1999/xlink" preserveAspectRatio="xMidYMid" width="70" height="47" viewBox="0 0 70 47">
  <defs>
    <style>
      .cls-1 {
        fill: #ed5565;
      }

      .cls-2 {
        fill: #f6bb42;
        fill-rule: evenodd;
      }
    </style>
  </defs>
  <g>
    <rect width="70" height="47" rx="6.364" ry="6.364" class="cls-1"/>
    <path d="M10.304,25.708 C9.479,26.294 9.000,25.964 9.239,24.975 L10.128,21.292 C10.367,20.303 9.936,18.951 9.170,18.288 L6.478,15.957 C5.712,15.294 5.911,14.729 6.919,14.700 L10.688,14.594 C11.697,14.565 12.756,13.743 13.043,12.767 L14.223,8.744 C14.510,7.768 15.024,7.752 15.367,8.710 L16.787,12.679 C17.129,13.636 18.235,14.428 19.244,14.438 L23.088,14.477 C24.097,14.487 24.299,15.042 23.537,15.710 L20.612,18.274 C19.851,18.941 19.458,20.288 19.740,21.265 L20.674,24.505 C20.956,25.483 20.482,25.848 19.622,25.316 L16.499,23.385 C15.639,22.853 14.260,22.898 13.435,23.484 L10.304,25.708 Z" class="cls-2"/>
    <path d="M27.442,10.149 C27.163,10.352 27.001,10.238 27.082,9.894 L27.382,8.615 C27.463,8.272 27.317,7.803 27.059,7.572 L26.150,6.763 C25.891,6.533 25.958,6.336 26.299,6.326 L27.571,6.290 C27.912,6.280 28.270,5.994 28.366,5.655 L28.765,4.258 C28.862,3.919 29.036,3.914 29.151,4.247 L29.631,5.625 C29.746,5.957 30.120,6.232 30.461,6.235 L31.759,6.249 C32.099,6.253 32.168,6.445 31.911,6.677 L30.923,7.567 C30.665,7.799 30.533,8.267 30.628,8.606 L30.943,9.731 C31.039,10.070 30.879,10.197 30.588,10.012 L29.534,9.342 C29.243,9.157 28.777,9.173 28.499,9.376 L27.442,10.149 Z" class="cls-2"/>
    <path d="M27.442,28.899 C27.163,29.102 27.001,28.988 27.082,28.644 L27.382,27.365 C27.463,27.022 27.317,26.553 27.059,26.322 L26.150,25.513 C25.891,25.283 25.958,25.086 26.299,25.076 L27.571,25.039 C27.912,25.030 28.270,24.744 28.366,24.405 L28.765,23.008 C28.862,22.669 29.036,22.664 29.151,22.997 L29.631,24.375 C29.746,24.707 30.120,24.982 30.461,24.986 L31.759,24.999 C32.099,25.003 32.168,25.195 31.911,25.427 L30.923,26.317 C30.665,26.549 30.533,27.016 30.628,27.356 L30.943,28.481 C31.039,28.820 30.879,28.947 30.588,28.762 L29.534,28.092 C29.243,27.907 28.777,27.923 28.499,28.126 L27.442,28.899 Z" class="cls-2"/>
    <path d="M34.375,23.541 C34.097,23.745 33.934,23.631 34.015,23.287 L34.316,22.008 C34.396,21.665 34.251,21.195 33.992,20.965 L33.083,20.156 C32.824,19.926 32.891,19.729 33.232,19.719 L34.505,19.682 C34.845,19.672 35.203,19.387 35.300,19.048 L35.699,17.651 C35.795,17.312 35.969,17.307 36.085,17.639 L36.564,19.017 C36.680,19.350 37.053,19.625 37.394,19.628 L38.692,19.642 C39.033,19.645 39.101,19.838 38.844,20.070 L37.856,20.960 C37.599,21.192 37.466,21.659 37.561,21.999 L37.877,23.124 C37.972,23.463 37.812,23.590 37.522,23.405 L36.467,22.735 C36.176,22.550 35.711,22.566 35.432,22.769 L34.375,23.541 Z" class="cls-2"/>
    <path d="M34.375,16.399 C34.097,16.602 33.934,16.488 34.015,16.144 L34.316,14.865 C34.396,14.522 34.251,14.053 33.992,13.822 L33.083,13.013 C32.824,12.783 32.891,12.586 33.232,12.576 L34.505,12.539 C34.845,12.530 35.203,12.244 35.300,11.905 L35.699,10.508 C35.795,10.169 35.969,10.164 36.085,10.497 L36.564,11.874 C36.680,12.207 37.053,12.482 37.394,12.486 L38.692,12.499 C39.033,12.503 39.101,12.695 38.844,12.927 L37.856,13.817 C37.599,14.049 37.466,14.517 37.561,14.856 L37.877,15.981 C37.972,16.320 37.812,16.447 37.522,16.262 L36.467,15.592 C36.176,15.407 35.711,15.423 35.432,15.626 L34.375,16.399 Z" class="cls-2"/>
  </g>
</svg>
